{
  "project_info": {
    "project_number": "1073196611646",
    "firebase_url": "https://teachersparent.firebaseio.com",
    "project_id": "teachersparent",
    "storage_bucket": "teachersparent.appspot.com"
  },
  "client": [
    {
      "client_info": {
        "mobilesdk_app_id": "1:1073196611646:android:eb76b6cbd5b2cf7c",
        "android_client_info": {
          "package_name": "com.school.teacherparent"
        }
      },
      "oauth_client": [
        {
          "client_id": "1073196611646-aj4kkmevevh2n0rutsjjl5879vouli6f.apps.googleusercontent.com",
          "client_type": 3
        }
      ],
      "api_key": [
        {
          "current_key": "AIzaSyAHBOdENwLPMz5OVGN-L0830nBVT3BJTd8"
        }
      ],
      "services": {
        "analytics_service": {
          "status": 1
        },
        "appinvite_service": {
          "status": 1,
          "other_platform_oauth_client": []
        },
        "ads_service": {
          "status": 2
        }
      }
    }
  ],
  "configuration_version": "1"
}